,period,assets,liabilities,delta
0,2009-06-30,25406247148669.0,17128285589000.0,121.450012
1,2009-09-30,29814957556000.0,19849345309000.0,137.759949
2,2009-12-31,187240053115722.0,111180896506659.44,58.02002
3,2010-03-31,34539262229393.0,23816928557072.34,54.330078
4,2010-06-30,42945374206268.266,27353573486871.0,-138.720093
5,2010-09-30,45994485563368.266,29057634722753.312,110.48999
6,2010-12-31,230347170521314.22,160918452063760.0,116.440064
7,2011-03-31,46455088924376.69,26997809231384.79,68.189941
8,2011-06-30,63247719398879.73,37593894996129.22,-5.189941
9,2011-09-30,61267112335423.6,36981349744936.43,-189.219971
10,2011-12-31,255202040440839.94,173463671325766.8,126.179932
11,2012-03-31,59585428955903.93,36643989614071.8,150.869995
12,2012-06-30,61712921890218.0,37459994027347.0,-46.309937
13,2012-09-30,64166541525840.9,37292981698639.0,78.51001
14,2012-12-31,270250990611484.1,173324860444909.6,-14.480103
15,2013-03-31,56884537646229.1,32290733321032.0,143.0
16,2013-06-30,63321236232111.0,35228305565243.0,37.090088
17,2013-09-30,67028724778484.0,38275123742456.0,75.27002
18,2013-12-31,297209927080497.0,186966496969001.9,166.809936
19,2014-03-31,61308214140075.0,34110544779562.0,23.979981
20,2014-06-30,70314686342236.11,40519064277863.94,87.890014
21,2014-09-30,71773469226738.0,40784025217296.0,12.060059
22,2014-12-31,314351019125239.0,195265238759257.0,86.609863
23,2015-03-31,65560025706704.0,34398090656012.0,8.989991
24,2015-06-30,75284657531116.0,42964776751877.0,-4.779786
25,2015-09-30,78953188528236.0,44797092028298.0,-143.080078
26,2015-12-31,329790740184262.6,207322556370334.0,123.909912
27,2016-03-31,77273161332832.0,45421246549998.0,15.800049
28,2016-06-30,78809833749574.0,44411137823508.0,39.120117
29,2016-09-30,82444091712494.0,45904520085732.0,69.409913
30,2016-12-31,304506501235828.0,204155399625955.0,70.560058
31,2017-03-31,79287784851316.0,45568593187934.0,123.889893
32,2017-06-30,77120829196864.0,45069686636755.0,60.689941
33,2017-09-30,67758569918294.0,44856546433215.0,95.950195
34,2017-12-31,173791202777621.0,119469840496607.0,154.25
35,2018-03-31,61809454139529.6,41459749702695.0,-32.73999
36,2018-06-30,60435428967647.41,40628000033174.0,77.5
37,2018-09-30,17573000.0,6299000.0,195.609863
38,2018-12-31,500.0,1052.0,-407.129882
